{
  "local": {
    "backend": "http://192.168.1.41"
  },
  "fuego": {
    "backend" : "http://192.168.1.55"
  },
  "dev": {
    "backend": "http://192.168.99.100/backend"
  },
  "production": {
    "backend": "https://api.production.com"
  }
}
